[
	{
		"Name": "Default",
		"PluralName": "Defaults",
		"PositionX": 0.0,
		"PositionY": 0.0,
		"Width": 1,
		"Height": 1,
		"InputControllerId": 0,
		"InputResolverId": 0,
		"PhysicsControllerId": 0,
		"PhysicsResolverId": 0,
		"PhysicsControllerDataId": 1,
		"AnimatorControllerId": 0
	},
	{
		"Name": "Player",
		"PluralName": "Players",
		"PositionX": 0.0,
		"PositionY": 0.0,
		"Width": 1,
		"Height": 1,
		"InputControllerId": 1,
		"InputResolverId": 0,
		"PhysicsControllerId": 0,
		"PhysicsResolverId": 0,
		"PhysicsControllerDataId": 0,
		"AnimatorControllerId": 0
	},
	{
		"Name": "Jumping Skeleton",
		"PluralName": "Jumping Skeletons",
		"PositionX": 0.0,
		"PositionY": 0.0,
		"Width": 1,
		"Height": 1,
		"InputControllerId": 2,
		"InputResolverId": 0,
		"PhysicsControllerId": 0,
		"PhysicsResolverId": 0,
		"PhysicsControllerDataId": 1,
		"AnimatorControllerId": 1
	},
	{
		"Name": "Moving Skeleton",
		"PluralName": "Moving Skeletons",
		"PositionX": 0.0,
		"PositionY": 0.0,
		"Width": 1,
		"Height": 1,
		"InputControllerId": 3,
		"InputResolverId": 0,
		"PhysicsControllerId": 0,
		"PhysicsResolverId": 0,
		"PhysicsControllerDataId": 1,
		"AnimatorControllerId": 1
	},
	{
		"Name": "Moving Slime",
		"PluralName": "Moving Slimes",
		"PositionX": 0.0,
		"PositionY": 0.0,
		"Width": 1,
		"Height": 1,
		"InputControllerId": 3,
		"InputResolverId": 0,
		"PhysicsControllerId": 0,
		"PhysicsResolverId": 0,
		"PhysicsControllerDataId": 2,
		"AnimatorControllerId": 2
	}
]
